{
	"info": {
		"_postman_id": "97eb9304-e423-4fc9-9e7c-8a9826da15e2",
		"name": "Supabase",
		"schema": "https://schema.getpostman.com/json/collection/v2.1.0/collection.json",
		"_exporter_id": "21502640"
	},
	"item": [
		{
			"name": "Select All_Supabase",
			"request": {
				"auth": {
					"type": "bearer",
					"bearer": [
						{
							"key": "token",
							"value": "eyJhbGciOiJIUzI1NiIsInR5cCI6IkpXVCJ9.eyJpc3MiOiJzdXBhYmFzZSIsInJlZiI6Imd5dmFvZnJ5Y21keXJ3ZG9qamZhIiwicm9sZSI6ImFub24iLCJpYXQiOjE2NjU1NjI0NDIsImV4cCI6MTk4MTEzODQ0Mn0.LrgtvTeN-787YIqyVSAfEG9w0Sz_pSucZZ1qRExag4I",
							"type": "string"
						}
					]
				},
				"method": "GET",
				"header": [
					{
						"key": "apikey",
						"value": "eyJhbGciOiJIUzI1NiIsInR5cCI6IkpXVCJ9.eyJpc3MiOiJzdXBhYmFzZSIsInJlZiI6Imd5dmFvZnJ5Y21keXJ3ZG9qamZhIiwicm9sZSI6ImFub24iLCJpYXQiOjE2NjU1NjI0NDIsImV4cCI6MTk4MTEzODQ0Mn0.LrgtvTeN-787YIqyVSAfEG9w0Sz_pSucZZ1qRExag4I",
						"type": "text"
					}
				],
				"url": {
					"raw": "https://gyvaofrycmdyrwdojjfa.supabase.co/rest/v1/supabase?select=*",
					"protocol": "https",
					"host": [
						"gyvaofrycmdyrwdojjfa",
						"supabase",
						"co"
					],
					"path": [
						"rest",
						"v1",
						"supabase"
					],
					"query": [
						{
							"key": "select",
							"value": "*"
						}
					]
				}
			},
			"response": []
		},
		{
			"name": "Insert_row",
			"request": {
				"method": "POST",
				"header": [],
				"url": {
					"raw": ""
				}
			},
			"response": []
		},
		{
			"name": "Update_row",
			"request": {
				"method": "GET",
				"header": [],
				"url": {
					"raw": "https://gyvaofrycmdyrwdojjfa.supabase.co/rest/v1/supabase?some_column=eq.someValue",
					"protocol": "https",
					"host": [
						"gyvaofrycmdyrwdojjfa",
						"supabase",
						"co"
					],
					"path": [
						"rest",
						"v1",
						"supabase"
					],
					"query": [
						{
							"key": "some_column",
							"value": "eq.someValue"
						}
					]
				}
			},
			"response": []
		}
	]
}